Kongerækken data
…
Is your data messy? Fix it before re-importing to R

Do your start and end of reign columns contain NAs? Choose the right
strategy to deal with them: na.omit(),
na.rm=TRUE, !is.na()

Create a new column called duration in the kings
dataset, utilizing the mutate() function from tidyverse.
Check with your group to brainstorm the options.

# I find the duration of the reign by subtracting the start of reign with the end of reign with the mutate function
kings %>% 
  mutate(duration = reg_slut - reg_start)

## # A tibble: 55 × 7
##    reg_id reg_navn           fødselsår dødsår reg_start reg_slut duration
##     <dbl> <chr>                  <dbl>  <dbl>     <dbl>    <dbl>    <dbl>
##  1      1 Gorm_den _Gamle           NA    958        NA      958       NA
##  2      2 Harald_1_Blåtand          NA    987       958      987       29
##  3      3 Svend_1_Tveskæg           NA   1014       987     1014       27
##  4      4 Harald_2                  NA   1018      1014     1018        4
##  5      5 Knud_1_den_Store         995   1035      1018     1035       17
##  6      6 Hardeknud               1020   1042      1035     1042        7
##  7      7 Magnus_den_Gode         1024   1047      1042     1047        5
##  8      8 Svend_2_Estridsen         NA   1076      1047     1074       27
##  9      9 Harald_3_Hen              NA   1080      1074     1080        6
## 10     10 Knud_2_den_Hellige        NA   1086      1080     1086        6
## # ℹ 45 more rows
…
# First I find the average and then count how many kings have a duration above that average. Lastly I display the kings in order of longest duration
average_duration <- kings %>% 
  mutate(duration = reg_slut - reg_start) %>% 
  summarize(Average = mean(duration, na.rm=TRUE)) %>% 
  pull(Average)

# Display of the longest reigning monarchs 
kings %>% 
  mutate(duration = reg_slut - reg_start) %>% 
  filter(duration > average_duration) %>% 
  select(reg_navn, duration) %>% 
  arrange(desc(duration))

## # A tibble: 24 × 2
##    reg_navn             duration
##    <chr>                   <dbl>
##  1 Christian_4                60
##  2 Margrethe_2                52
##  3 Erik_7_af_Pommern          43
##  4 Christian_9                43
##  5 Christian_7                42
##  6 Valdemar_2_Sejr            39
##  7 Valdemar_1_den_Store       36
##  8 Valdemar_4_Atterdag        35
##  9 Christian_10               35
## 10 Erik_6_Menved              33
## # ℹ 14 more rows
…
